{
  "minMuleVersion": "4.3.0",
  "secureProperties": ["mule.key","anypoint.platform.client_secret","anypoint.platform.client_id","oauth.client_id","oauth.client_secret","oauth.tenant","truststore.password","keystore.password","keystore.keypassword"]
}